{
  "image": "adoptopenjdk/openjdk16:{arch}-ubuntu-jre-11.0.11_9",
  "build_from": {
    "armvhf": "adoptopenjdk/openjdk11armv7l-ubuntu-jre-11.0.11_9",
    "armv7": "adoptopenjdk/openjdk11:armv7l-ubuntu-jre-11.0.11_9",
    "aarch64": "adoptopenjdk/openjdk11:aarch64-ubuntu-jre-11.0.11_9",
    "amd64": "adoptopenjdk/openjdk11:x86_64-ubuntu-jre-11.0.11_9"
  }
}
